[
	{"name" : "desktop", 	"condition" : "{SCREENWIDTH} >= 1024"},
	{"name" : "tablet", 	"condition" : "{SCREENWIDTH} < 1024 && {SCREENWIDTH} >= 768"},
	{"name" : "mobile", 	"condition" : "{SCREENWIDTH} < 768"}
]